Mesh in 3 dimensions:
  0-cells: 8
  1-cells: 19
  2-cells: 18
  3-cells: 6
Labels:
  marker: 1 strata of sizes (38)
  depth: 4 strata of sizes (8, 19, 18, 6)
Local function:
Vec Object: 1 MPI processes
  type: seq
0
1
1
2
1
2
2
3
Initial guess
Vec Object: 1 MPI processes
  type: seq
0
1
1
2
1
2
2
3
L_2 Error: 0.625
Residual:
Vec Object: 1 MPI processes
  type: seq
0
-0.333333
-0.333333
-0.333333
-0.333333
-0.333333
-0.333333
0
Initial Residual
Vec Object: 1 MPI processes
  type: seq
0
-0.333333
-0.333333
-0.333333
-0.333333
-0.333333
-0.333333
0
L_2 Residual: 0.816497
Residual:
Vec Object: 1 MPI processes
  type: seq
0
-0.333333
-0.333333
-0.333333
-0.333333
-0.333333
-0.333333
0
Residual:
Vec Object: 1 MPI processes
  type: seq
8.79016e-08
-0.333333
-0.333333
-0.333333
-0.333333
-0.333333
-0.333333
0
Residual:
Vec Object: 1 MPI processes
  type: seq
-2.93005e-08
-0.333333
-0.333333
-0.333333
-0.333333
-0.333333
-0.333333
0
Residual:
Vec Object: 1 MPI processes
  type: seq
-2.93005e-08
-0.333333
-0.333333
-0.333333
-0.333333
-0.333333
-0.333333
0
Residual:
Vec Object: 1 MPI processes
  type: seq
0
-0.333333
-0.333333
-0.333333
-0.333333
-0.333333
-0.333333
-2.93005e-08
Residual:
Vec Object: 1 MPI processes
  type: seq
-2.93005e-08
-0.333333
-0.333333
-0.333333
-0.333333
-0.333333
-0.333333
0
Residual:
Vec Object: 1 MPI processes
  type: seq
0
-0.333333
-0.333333
-0.333333
-0.333333
-0.333333
-0.333333
-2.93005e-08
Residual:
Vec Object: 1 MPI processes
  type: seq
0
-0.333333
-0.333333
-0.333333
-0.333333
-0.333333
-0.333333
-2.93005e-08
Residual:
Vec Object: 1 MPI processes
  type: seq
0
-0.333333
-0.333333
-0.333333
-0.333333
-0.333333
-0.333333
8.79016e-08
Residual:
Vec Object: 1 MPI processes
  type: seq
1
-0.333333
-0.333333
-0.333333
-0.333333
-0.333333
-0.333333
-1
Au - b = Au + F(0)
Vec Object: 1 MPI processes
  type: seq
7.216e-10
-0.333333
-0.333333
-0.333333
-0.333333
-0.333333
-0.333333
-2.61614e-09
Linear L_2 Residual: 0.816497