Local function:
Vec Object: 1 MPI processes
  type: seq
0
0.25
1
0.25
0.5
1.25
1
1.25
2
0.0625
0.125
0.0625
0.625
0.5625
0.3125
0.3125
0.625
1.0625
0.8125
0.5625
1.125
1.5625
1.5625
0.8125
1.0625
Initial guess
Vec Object: 1 MPI processes
  type: seq
0.5
0.125
0.625
0.3125
0.3125
0.625
0.8125
1.125
0.8125
L_2 Error: < 1.0e-11
Residual:
Vec Object: 1 MPI processes
  type: seq
0
0
0
0
0
0
0
0
0
0
0
0
0
0
0
0
0
0
0
0
0
0
0
0
0
Initial Residual
Vec Object: 1 MPI processes
  type: seq
0
0
0
0
0
0
0
0
0
L_2 Residual: 0
Jacobian:
Mat Object: 1 MPI processes
  type: seqaij
row 0: (0, 4)  (1, -0.1)  (2, 0)  (3, -1.05)  (4, -1.05)  (5, 0)  (6, -1.61667)  (7, 0.1)  (8, -1.61667) 
row 1: (0, -0.1)  (1, 2.66667)  (3, -0.733333)  (4, -0.733333) 
row 2: (0, 0)  (2, 5.33333)  (3, -1.26667)  (8, -1.4) 
row 3: (0, -1.05)  (1, -0.733333)  (2, -1.26667)  (3, 4)  (4, -0.133333) 
row 4: (0, -1.05)  (1, -0.733333)  (3, -0.133333)  (4, 4)  (5, -1.26667) 
row 5: (0, 0)  (4, -1.26667)  (5, 5.33333)  (6, -1.4) 
row 6: (0, -1.61667)  (5, -1.4)  (6, 6.66667)  (7, -1.93333)  (8, 0.133333) 
row 7: (0, 0.1)  (6, -1.93333)  (7, 8)  (8, -1.93333) 
row 8: (0, -1.61667)  (2, -1.4)  (6, 0.133333)  (7, -1.93333)  (8, 6.66667) 
Residual:
Vec Object: 1 MPI processes
  type: seq
0
0
0
0
1.18333
0
0
0
0
0
0.175
0
-1.8
0
0.2
0.2
-1.8
0
-1.66667
0
-5.90833
0
0
-1.66667
0
Au - b = Au + F(0)
Vec Object: 1 MPI processes
  type: seq
0
0
0
0
0
0
0
0
0
Linear L_2 Residual: 0