0 0 0.000000
0 1 0.100000
0 2 1.000000
0 3 1.100000
1 28 14.000000
1 29 14.100000
1 4 2.000000
1 5 2.100000
1 6 3.000000
1 7 3.100000
2 56 28.000000
2 57 28.100000
2 8 4.000000
2 9 4.100000
2 10 5.000000
2 11 5.100000
3 12 6.000000
3 13 6.100000
3 14 7.000000
3 15 7.100000
4 16 8.000000
4 17 8.100000
4 18 9.000000
4 19 9.100000
5 20 10.000000
5 21 10.100000
5 22 11.000000
5 23 11.100000
6 24 12.000000
6 25 12.100000
6 26 13.000000
6 27 13.100000
*** Matrix A and vector x:
Mat Object: 1 MPI processes
  type: mpiaij
row 0: (0, 4)  (2, -1)  (28, -1) 
row 1: (1, 4)  (3, -1)  (29, -1) 
row 2: (0, -1)  (2, 4)  (4, -1)  (30, -1) 
row 3: (1, -1)  (3, 4)  (5, -1)  (31, -1) 
row 4: (2, -1)  (4, 4)  (6, -1)  (32, -1) 
row 5: (3, -1)  (5, 4)  (7, -1)  (33, -1) 
row 6: (4, -1)  (6, 4)  (8, -1)  (34, -1) 
row 7: (5, -1)  (7, 4)  (9, -1)  (35, -1) 
row 8: (6, -1)  (8, 4)  (10, -1)  (36, -1) 
row 9: (7, -1)  (9, 4)  (11, -1)  (37, -1) 
row 10: (8, -1)  (10, 4)  (12, -1)  (38, -1) 
row 11: (9, -1)  (11, 4)  (13, -1)  (39, -1) 
row 12: (10, -1)  (12, 4)  (14, -1)  (40, -1) 
row 13: (11, -1)  (13, 4)  (15, -1)  (41, -1) 
row 14: (12, -1)  (14, 4)  (16, -1)  (42, -1) 
row 15: (13, -1)  (15, 4)  (17, -1)  (43, -1) 
row 16: (14, -1)  (16, 4)  (18, -1)  (44, -1) 
row 17: (15, -1)  (17, 4)  (19, -1)  (45, -1) 
row 18: (16, -1)  (18, 4)  (20, -1)  (46, -1) 
row 19: (17, -1)  (19, 4)  (21, -1)  (47, -1) 
row 20: (18, -1)  (20, 4)  (22, -1)  (48, -1) 
row 21: (19, -1)  (21, 4)  (23, -1)  (49, -1) 
row 22: (20, -1)  (22, 4)  (24, -1)  (50, -1) 
row 23: (21, -1)  (23, 4)  (25, -1)  (51, -1) 
row 24: (22, -1)  (24, 4)  (26, -1)  (52, -1) 
row 25: (23, -1)  (25, 4)  (27, -1)  (53, -1) 
row 26: (24, -1)  (26, 4)  (54, -1) 
row 27: (25, -1)  (27, 4)  (55, -1) 
row 28: (0, -1)  (28, 4)  (30, -1)  (56, -1) 
row 29: (1, -1)  (29, 4)  (31, -1)  (57, -1) 
row 30: (2, -1)  (28, -1)  (30, 4)  (32, -1)  (58, -1) 
row 31: (3, -1)  (29, -1)  (31, 4)  (33, -1)  (59, -1) 
row 32: (4, -1)  (30, -1)  (32, 4)  (34, -1)  (60, -1) 
row 33: (5, -1)  (31, -1)  (33, 4)  (35, -1)  (61, -1) 
row 34: (6, -1)  (32, -1)  (34, 4)  (36, -1)  (62, -1) 
row 35: (7, -1)  (33, -1)  (35, 4)  (37, -1)  (63, -1) 
row 36: (8, -1)  (34, -1)  (36, 4)  (38, -1)  (64, -1) 
row 37: (9, -1)  (35, -1)  (37, 4)  (39, -1)  (65, -1) 
row 38: (10, -1)  (36, -1)  (38, 4)  (40, -1)  (66, -1) 
row 39: (11, -1)  (37, -1)  (39, 4)  (41, -1)  (67, -1) 
row 40: (12, -1)  (38, -1)  (40, 4)  (42, -1)  (68, -1) 
row 41: (13, -1)  (39, -1)  (41, 4)  (43, -1)  (69, -1) 
row 42: (14, -1)  (40, -1)  (42, 4)  (44, -1)  (70, -1) 
row 43: (15, -1)  (41, -1)  (43, 4)  (45, -1)  (71, -1) 
row 44: (16, -1)  (42, -1)  (44, 4)  (46, -1)  (72, -1) 
row 45: (17, -1)  (43, -1)  (45, 4)  (47, -1)  (73, -1) 
row 46: (18, -1)  (44, -1)  (46, 4)  (48, -1)  (74, -1) 
row 47: (19, -1)  (45, -1)  (47, 4)  (49, -1)  (75, -1) 
row 48: (20, -1)  (46, -1)  (48, 4)  (50, -1)  (76, -1) 
row 49: (21, -1)  (47, -1)  (49, 4)  (51, -1)  (77, -1) 
row 50: (22, -1)  (48, -1)  (50, 4)  (52, -1)  (78, -1) 
row 51: (23, -1)  (49, -1)  (51, 4)  (53, -1)  (79, -1) 
row 52: (24, -1)  (50, -1)  (52, 4)  (54, -1)  (80, -1) 
row 53: (25, -1)  (51, -1)  (53, 4)  (55, -1)  (81, -1) 
row 54: (26, -1)  (52, -1)  (54, 4)  (82, -1) 
row 55: (27, -1)  (53, -1)  (55, 4)  (83, -1) 
row 56: (28, -1)  (56, 4)  (58, -1) 
row 57: (29, -1)  (57, 4)  (59, -1) 
row 58: (30, -1)  (56, -1)  (58, 4)  (60, -1) 
row 59: (31, -1)  (57, -1)  (59, 4)  (61, -1) 
row 60: (32, -1)  (58, -1)  (60, 4)  (62, -1) 
row 61: (33, -1)  (59, -1)  (61, 4)  (63, -1) 
row 62: (34, -1)  (60, -1)  (62, 4)  (64, -1) 
row 63: (35, -1)  (61, -1)  (63, 4)  (65, -1) 
row 64: (36, -1)  (62, -1)  (64, 4)  (66, -1) 
row 65: (37, -1)  (63, -1)  (65, 4)  (67, -1) 
row 66: (38, -1)  (64, -1)  (66, 4)  (68, -1) 
row 67: (39, -1)  (65, -1)  (67, 4)  (69, -1) 
row 68: (40, -1)  (66, -1)  (68, 4)  (70, -1) 
row 69: (41, -1)  (67, -1)  (69, 4)  (71, -1) 
row 70: (42, -1)  (68, -1)  (70, 4)  (72, -1) 
row 71: (43, -1)  (69, -1)  (71, 4)  (73, -1) 
row 72: (44, -1)  (70, -1)  (72, 4)  (74, -1) 
row 73: (45, -1)  (71, -1)  (73, 4)  (75, -1) 
row 74: (46, -1)  (72, -1)  (74, 4)  (76, -1) 
row 75: (47, -1)  (73, -1)  (75, 4)  (77, -1) 
row 76: (48, -1)  (74, -1)  (76, 4)  (78, -1) 
row 77: (49, -1)  (75, -1)  (77, 4)  (79, -1) 
row 78: (50, -1)  (76, -1)  (78, 4)  (80, -1) 
row 79: (51, -1)  (77, -1)  (79, 4)  (81, -1) 
row 80: (52, -1)  (78, -1)  (80, 4)  (82, -1) 
row 81: (53, -1)  (79, -1)  (81, 4)  (83, -1) 
row 82: (54, -1)  (80, -1)  (82, 4) 
row 83: (55, -1)  (81, -1)  (83, 4) 
Vec Object: 7 MPI processes
  type: mpi
Process [0]
0
0.1
1
1.1
2
2.1
3
3.1
4
4.1
5
5.1
Process [1]
6
6.1
7
7.1
8
8.1
9
9.1
10
10.1
11
11.1
Process [2]
12
12.1
13
13.1
14
14.1
0
0
0
0
0
0
Process [3]
0
0
0
0
0
0
0
0
0
0
0
0
Process [4]
0
0
0
0
0
0
0
0
28
28.1
0
0
Process [5]
0
0
0
0
0
0
0
0
0
0
0
0
Process [6]
0
0
0
0
0
0
0
0
0
0
0
0
*** Vector rhs returned by MatZeroRowsColumns
Vec Object: 7 MPI processes
  type: mpi
Process [0]
0
0.1
1
1.1
2
2.1
3
3.1
4
4.1
5
5.1
Process [1]
6
6.1
7
7.1
8
8.1
9
9.1
10
10.1
11
11.1
Process [2]
12
12.1
13
13.1
14
14.1
15
15.2
2
2.1
3
3.1
Process [3]
4
4.1
5
5.1
6
6.1
7
7.1
8
8.1
9
9.1
Process [4]
10
10.1
11
11.1
12
12.1
13
13.1
28
28.1
28
28.1
Process [5]
0
0
0
0
0
0
0
0
0
0
0
0
Process [6]
0
0
0
0
0
0
0
0
0
0
0
0
